{
    "base_directory" : "/home/username/project_dir",
    "sciatran_md5": "905001e775f16807e4d8b40c378d3f3f",
    "control.inp": {
        "Advanced Rayleigh settings": true, 
        "Advanced accuracy control": true, 
        "Advanced profile settings": true, 
        "Aerosol settings": "off", 
        "Albedo": 0.061, 
        "Altitude grid file name": "../data/profiles/NET172.dat", 
        "Clouds present?": false, 
        "Date\n'DMY'": "15.06.2013", 
        "Dimension of extra-terrestrial solar flux": [
            "nm", 
            "phot/s", 
            "cm^2", 
            "nm"
        ], 
        "Do convolution": false, 
        "Do profile latitude interpolation": false, 
        "Do specification by geolocation": false, 
        "Extra-terrestrial solar flux": "File", 
        "Filename user provided solar spectrum": "../data/spectra/kurucz-sunspectrum.dat", 
        "Forward model: UV-Vis absorbing species\nBRO NO3 OCLO O4": [
            true, 
            true, 
            false, 
            true
        ], 
        "Forward model: UV-Vis-IR absorbing species\nO3 NO2 SO2 ClO HCHO": [
            true, 
            true, 
            true, 
            false, 
            true
        ], 
        "Forward model: Vis-IR absorbing species\nO2 H2O CO2 N2O CO CH4 NO NH3 HNO3 OH HF HCL HBR HI": [
            false, 
            false, 
            false, 
            false, 
            false, 
            false, 
            false, 
            false, 
            false, 
            false, 
            false, 
            false, 
            false, 
            false
        ], 
        "Height above sea level": 0.0, 
        "Include land fluorescence": [
            false, 
            "../data/flu_land/fluor.dat", 
            1.0
        ], 
        "Include radiative transfer within ocean or ice": "none", 
        "Latitude & longitude": [
            31.0, 
            116.0
        ], 
        "Line absorber treatment": "off", 
        "Output format specification": false, 
        "Parallel wavelength loop": false, 
        "Path to climatology data base": "../DATA_BASES/CLIMATOLOGY/", 
        "Path to the albedo database": "../../DATA_BASES/ALBEDO/", 
        "Photochemical calculations": false, 
        "RTM Mode": "raman", 
        "RTM-CORE": "DOM_S", 
        "RTM_TYPE": "ps_scat", 
        "Replacement for water": [
            false, 
            "albedo_rg_water.dat"
        ], 
        "Spectral albedo filename": "", 
        "Standard profile scenario file name": "../../DATA_BASES/PROFILES/B2D/UV-Vis/mon06lat35n.b2d", 
        "Standard profile scenario for line absorbers": "../../DATA_BASES/PROFILES/B2D/IR/mon06lat35n.b2d", 
        "Stokes vector of incident beam": [
            1.0, 
            0.0, 
            0.0, 
            0.0
        ], 
        "Stop after generating control_climatology.inp": false, 
        "Surface reflection type": "alb_const", 
        "Thermal emission": false, 
        "Trace gas selection - AMF calculation": "NO2", 
        "Verbosity level": "SS", 
        "Wavelength grid from file": [
            false, 
            "/home/scia/alex/data/SCIA_LIMB/UV-Vis/Orbit21223/Orb21223_St06_Az4_1.DAT", 
            1
        ], 
        "Wavelength segment info": [
            [
                2, 
                310.0, 
                498.54, 
                0.22
            ]
        ]
    }, 
    "control_ac.inp": {
        "Accuracy criterion": 0.001, 
        "Adaptive grid": false, 
        "Analytic for conservative scattering": [
            false, 
            0.0001
        ], 
        "Azimuth series flag": true, 
        "Do only 0th harmonic for near nadir": true, 
        "Fine grid height": 80.0, 
        "Fine grid start": 3, 
        "Fine grid tangent": 5, 
        "Homogeneity criterion": 0.25, 
        "Integration nodes": [
            false, 
            "/home/scia/patty/SCIATRAN/data/nodes/nodes25.txt"
        ], 
        "Integration over L-of-S in Fourier space?": "yes", 
        "Near nadir definition [deg]": 0.01, 
        "Number of Legendre moments": 35, 
        "Number of streams": 16, 
        "Only one solar zenith angle": false, 
        "Post-processing type": "Int_SF", 
        "SS/MS wavelength boundary": 305.0, 
        "Scattering mode": "ms", 
        "Single scattering correction": false, 
        "Solar fine grid height": 80.0, 
        "The layering of line-of-sight": [
            5, 
            5, 
            1.0
        ], 
        "The number of fine grid layers": 10, 
        "The number of iterations": 1
    }, 
    "control_geom.inp": {
        "Angle selection mode": "one", 
        "Azimuth angles": [
            127.61, 
            126.93, 
            126.32, 
            125.29, 
            124.38, 
            123.57, 
            122.82, 
            122.12, 
            121.17, 
            120.03, 
            119.02, 
            118.15, 
            117.44, 
            117.45, 
            66.69, 
            66.22, 
            66.92, 
            67.85, 
            68.95, 
            70.23, 
            71.35, 
            72.19, 
            73.12, 
            74.18, 
            75.41, 
            76.9, 
            77.82, 
            78.89
        ], 
        "Do refractive geometry": true, 
        "Earth radius": 6398.1, 
        "Field of view integration": false, 
        "Field of view size": 0.045, 
        "Lines of sight number for FOV integration": 5, 
        "Number of user-defined output altitudes": 1, 
        "Position of the instrument": "user", 
        "Shape of FOV function": 1, 
        "Solar zenith angles": [
            24.412, 
            24.412, 
            24.412, 
            24.412, 
            24.412, 
            24.412, 
            24.412, 
            24.412, 
            24.412, 
            24.412, 
            24.412, 
            24.412, 
            24.412, 
            24.412, 
            24.412, 
            24.412, 
            24.412, 
            24.412, 
            24.412, 
            24.412, 
            24.412, 
            24.412, 
            24.412, 
            24.412, 
            24.412, 
            24.412, 
            24.412, 
            24.412
        ], 
        "The number of azimuth angles": 28, 
        "The number of solar zenith angles": 28, 
        "The number of viewing angles": 28, 
        "Type of LOS definition": "va", 
        "User-defined output altitude": 817.0, 
        "Viewing angles": [
            54.0, 
            50.0, 
            46.0, 
            42.0, 
            38.0, 
            34.0, 
            30.0, 
            26.0, 
            22.0, 
            18.0, 
            14.0, 
            10.0, 
            6.0, 
            2.0, 
            2.0, 
            6.0, 
            10.0, 
            14.0, 
            18.0, 
            22.0, 
            26.0, 
            30.0, 
            34.0, 
            38.0, 
            42.0, 
            46.0, 
            50.0, 
            54.0
        ], 
        "Viewing direction": "dn"
    }, 
    "control_prof.inp": {
        "BrO climatology": false, 
        "BrO climatology file": "../../DATA_BASES/CLIMATOLOGY/BRO/bro_mipas_v2.dat", 
        "Do P and T from standard profile file": false, 
        "Do profiles akima interpolation": true, 
        "Ozone climatology": "NONE", 
        "Ozone profile scaling": [
            false, 
            300.0
        ], 
        "Ozone total column": 252.0, 
        "Path to ozone climatology": "../../DATA_BASES/CLIMATOLOGY/OZONE", 
        "Pressure and temperature file name": [
            "../data/profiles/camelot3_China_polluted_ext_alt.dat", 
            2, 
            3, 
            4
        ], 
        "Pressure profile scaling": [
            false, 
            900.0
        ], 
        "Scale climatological profile": true, 
        "Trace gas replacement profiles": [
            [
                "../data/profiles/camelot3_China_polluted_ext_alt.dat", 
                "O3", 
                "vmr", 
                2, 
                5
            ], 
            [
                "../data/profiles/camelot3_China_polluted_ext_alt.dat", 
                "NO2", 
                "vmr", 
                2, 
                6
            ], 
            [
                "../data/profiles/camelot3_China_polluted_ext_alt.dat", 
                "SO2", 
                "vmr", 
                2, 
                7
            ], 
            [
                "../data/profiles/camelot3_China_polluted_ext_alt.dat", 
                "HCHO", 
                "vmr", 
                2, 
                8
            ], 
            [
                "../data/profiles/camelot3_China_polluted_ext_alt.dat", 
                "NO3", 
                "vmr", 
                2, 
                9
            ], 
            [
                "../data/profiles/camelot3_China_polluted_ext_alt.dat", 
                "BRO", 
                "vmr", 
                2, 
                10
            ]
        ], 
        "Water vapor profile scaling": [
            false, 
            2.0
        ]
    }, 
    "scia_aer.inp": {
        "Aerosol layers (SCIA_AER)": [
            [
                2.0,
                10.0,
                30.0,
                100.0
            ],
            [
                80.0,
                70.0,
                0.0,
                0.0
            ]
        ],
        "Extiction coefficient profile (SCIA_AER)": [
            [
                0.0,
                1.58e-1
            ],
            [
                1.0,
                9.91e-2
            ],
            [
                2.0,
                6.21e-2
            ],
            [
                3.0, 
                1.46e-2
            ],
            [
                4.0,
                1.02e-2
            ],
            [
                5.0,
                9.31e-3
            ],
            [
                6.0,
                7.71e-3
            ],
            [
                7.0,
                6.23e-3
            ],
            [
                8.0,
                3.37e-3
            ],
            [
                9.0,
                1.82e-3
            ],
            [
                10.0,
                1.14e-3
            ],
            [
                11.0, 
                7.99e-4
            ],
            [
                12.0,
                6.41e-4
            ],
            [
                13.0,
                5.17e-4
            ],
            [
                14.0,
                4.42e-4
            ],
            [
                15.0,
                3.95e-4
            ],
            [
                16.0,
                3.82e-4
            ],
            [
                17.0,
                4.25e-4
            ],
            [
                18.0,
                5.20e-4
            ],
            [
                19.0,
                5.81e-4
            ],
            [
                20.0, 
                5.89e-4
            ],
            [
                21.0,
                5.02e-4
            ],
            [
                22.0,
                4.20e-4
            ],
            [
                23.0,
                3.00e-4
            ],
            [
                24.0,
                1.98e-4
            ],
            [
                25.0, 
                1.31e-4
            ],
            [
                30.0, 
                3.32e-5
            ],
            [
                35.0, 
                1.64e-5
            ],
            [
                40.0,
                7.99e-6
            ],
            [
                45.0,
                4.01e-6
            ],
            [
                50.0, 
                2.10e-6
            ],
            [
                70.0,
                1.60e-7
            ],
            [
                100.0,
                9.31e-10
            ]
        ],
        "Aerosol type definition (SCIA_AER)": [
            [
                "OPAC urban"
            ],
            [
                3
            ],
            [
                1,
                0.31399
            ],
            [
                5,
                0.00001
            ],
            [
                6,
                0.68600
            ],
            [
                "OPAC average continental"
            ],
            [
                3
            ],
            [
                1,
                0.4579
            ],
            [
                5,
                0.0001
            ],
            [
                6,
                0.5420
            ],
            [
                "sulfate"
            ],
            [
                1
            ],
            [
                4,
                1.0
            ],
            [
                "meteoric"
            ],
            [
                1
            ],
            [
                12,
                1.0
            ]
        ],
        "Profile type (SCIA_AER)": "exti",
        "Reference wavelength (SCIA_AER)": 550.0
    },
    "control_ray.inp": {
        "King factor": "from file", 
        "Lorentz-Lorenz factor": "a", 
        "Number of wavelength and wavelength grid": [
            [
                450.0
            ]
        ], 
        "Percent volume concentration": [
            78.084, 
            20.946, 
            0.934, 
            0.036
        ], 
        "Rayleigh depolarisation filename": "../../DATA_BASES/SPECTRA/bates_depol_raman.dat", 
        "Rayleigh depolarisation value": 0.0295, 
        "Rayleigh optical thickness": [
            false, 
            0.5
        ], 
        "Rayleigh scattering index": 4, 
        "Rayleigh scattering scaling": [
            false, 
            0.9977
        ], 
        "Refractive index": "Edlen66"
    }, 
    "control_rrs.inp": {
        "Add TRS to extinction": true, 
        "Approach to calculate contribution of Raman lines": "simple binning", 
        "Basic spectroscopic parameters": [
            [
                "TRS", 
                0.00027, 
                488.0, 
                "Resonance", 
                130.0
            ], 
            [
                "CS_90", 
                8.4e-30, 
                488.0, 
                "Resonance", 
                130.0
            ]
        ], 
        "Depolarization ratio": 0.17, 
        "Exclude solar light": false, 
        "Gaussian emission band parameters": [
            685.0, 
            10.6
        ], 
        "Integrate with FRF": [
            true, 
            2.0, 
            0.2
        ], 
        "Integration step over excitation range": 1.0, 
        "Maximum rotational number": 25, 
        "Numerical technique used for RRS": "adj", 
        "Numerical technique used for VRS": "dom", 
        "Numerical technique used for fluorescence": "dom", 
        "Quantum efficiency": 0.01, 
        "Quantum efficiency function": [
            "FA7", 
            "HA6"
        ], 
        "Raman binning step": 0.01, 
        "Ring spectra output mode": "log", 
        "Test with single model Fraunhofer line": false, 
        "Total Raman scattering coefficients": [
            false, 
            0.00264, 
            0.00143
        ], 
        "Tradeoff speed/memory": "speed"
    }, 
    "xsections.inp": {
        "Do O3 UV GOME FM": true, 
        "Do x-sections akima interpolation": true, 
        "X-section path": "../data/spectra/", 
        "X-section: bro": [
            [
                "bro_fleischmann_203K.dat", 
                203
            ], 
            [
                "bro_fleischmann_223K.dat", 
                223
            ], 
            [
                "bro_fleischmann_243K.dat", 
                243
            ], 
            [
                "bro_fleischmann_273K.dat", 
                273
            ], 
            [
                "bro_fleischmann_298K.dat", 
                298
            ]
        ], 
        "X-section: hcho": [
            [
                "hcho_meller-moortgat_223K.dat", 
                223
            ], 
            [
                "hcho_meller-moortgat_293K.dat", 
                293
            ]
        ], 
        "X-section: no2": [
            [
                "no2_vandaele_220K.dat", 
                220
            ], 
            [
                "no2_vandaele_294K.dat", 
                294
            ]
        ], 
        "X-section: no3": [
            [
                "h2o_hitran2009_273K.dat", 
                273
            ]
        ], 
        "X-section: o2 Herzberg": [
            [
                "ABSO2Herzberg.dat", 
                999
            ]
        ], 
        "X-section: o2 UV": [
            [
                "ABSO2fitcoef.cold", 
                160
            ], 
            [
                "ABSO2fitcoef.mid", 
                235
            ], 
            [
                "ABSO2fitcoef.hot", 
                390
            ]
        ], 
        "X-section: o3 < 240 nm": [
            [
                "ABSO3JPL_II.203.dat", 
                203
            ], 
            [
                "ABSO3JPL_II.273.dat", 
                273
            ]
        ], 
        "X-section: o3 UV-NIR": [
            [
                "o3_serdyuchenko_203K.dat", 
                203
            ], 
            [
                "o3_serdyuchenko_213K.dat", 
                213
            ], 
            [
                "o3_serdyuchenko_223K.dat", 
                223
            ], 
            [
                "o3_serdyuchenko_233K.dat", 
                233
            ], 
            [
                "o3_serdyuchenko_243K.dat", 
                243
            ], 
            [
                "o3_serdyuchenko_253K.dat", 
                253
            ], 
            [
                "o3_serdyuchenko_263K.dat", 
                263
            ], 
            [
                "o3_serdyuchenko_273K.dat", 
                273
            ], 
            [
                "o3_serdyuchenko_283K.dat", 
                283
            ], 
            [
                "o3_serdyuchenko_293K.dat", 
                293
            ]
        ], 
        "X-section: o3_uv, Bass": [
            "o3temp.dat", 
            245.1, 
            265.3
        ], 
        "X-section: o3_uv, GOME FM": [
            "n_gometemp.vac", 
            235.1, 
            259.9
        ], 
        "X-section: o4": [
            [
                "o4_greenblatt_296K.dat", 
                296
            ]
        ], 
        "X-section: so2": [
            [
                "so2_corrected_203K.dat", 
                203
            ], 
            [
                "so2_corrected_223K.dat", 
                223
            ], 
            [
                "so2_corrected_243K.dat", 
                243
            ], 
            [
                "so2_corrected_273K.dat", 
                273
            ], 
            [
                "so2_corrected_293K.dat", 
                293
            ]
        ]
    }
}