{
    "base_directory" : "Execute-3.1/",

    "control.inp": {
        "Verbosity level": "SS", 
        "RTM Mode": "block_amf", 
        "RTM_TYPE": "spher_scat", 
        "RTM-CORE": "DOM_V", 
        "Stokes vector of incident beam": [
            1.0, 0.0, 0.0, 0.0], 
        "Include radiative transfer within ocean or ice": "none", 
        "Include land fluorescence": [
            false, "../data/flu_land/fluor.dat", 1.0], 
        "Extra-terrestrial solar flux": "File", 
        "Filename user provided solar spectrum": "../../DATA_BASES/SPECTRA/thkur.dat.gpp", 
        "Dimension of extra-terrestrial solar flux": [
            "nm", "phot/s", "cm^2", "nm"], 
        "Parallel wavelength loop": false, 
        "Spectral segment info": [
            [1, 440.0, 1, 1]],
        "Wavelength grid from file": [
            false, "/home/scia/alex/data/SCIA_LIMB/UV-Vis/Orbit21223/Orb21223_St06_Az4_1.DAT", 1], 
        "Forward model: trace gases": [
            "O3", "NO2"], 
        "Trace gas selection - AMF calculation": "NO2", 
        "Line absorber treatment": "off", 
        "Collision-induced absorption": "NONE", 
        "Mixing ratios for CIA species": [], 
        "Account for N2-air collisions": false, 
        "Path to CIA data base": "../../DATA_BASES/HITRAN_2012/", 
        "Do convolution": false, 
        "Thermal emission": false, 
        "Advanced Rayleigh settings": true, 
        "Aerosol settings": "off", 
        "Clouds present?": false, 
        "Surface reflection type": "alb_const", 
        "Albedo": 0.061, 
        "Spectral albedo filename": "", 
        "Replacement for water": [
            false, "albedo_rg_water.dat"
        ], 
        "Path to the albedo database": "../../DATA_BASES/ALBEDO/", 
        "Altitude grid file name": "../data/netgrid_QA4ECV.dat", 
        "Height above sea level": 0.0, 
        "Standard profile scenario file name": "../../DATA_BASES/PROFILES/B2D/UV-Vis/mon07lat25s.b2d", 
        "Standard profile scenario for line absorbers": "../../DATA_BASES/PROFILES/B2D/IR/mon07lat25s.b2d", 
        "Advanced profile settings": true, 
        "Date\n'DMY'": "11.07.2012", 
        "Latitude & longitude": [
            51.0, 7.0], 
        "Photochemical calculations": false, 
        "Advanced accuracy control": true, 
        "Output format specification": false, 
        "Do specification by geolocation": false, 
        "Stop after generating control_climatology.inp": false, 
        "Do profile latitude interpolation": false, 
        "Path to climatology data base": "../DATA_BASES/CLIMATOLOGY/"
    }, 

    "control_ac.inp": {
        "Scattering mode": "ms", 
        "SS/MS wavelength boundary": 305.0, 
        "The number of fine grid layers": 10, 
        "Fine grid start": 3, 
        "Fine grid tangent": 5, 
        "Fine grid height": 20.0, 
        "Solar fine grid height": 20.0, 
        "The layering of line-of-sight": [
            5, 5, 1.0], 
        "Adaptive grid": false, 
        "Homogeneity criterion": 0.2, 
        "Azimuth series flag": true, 
        "Do only 0th harmonic for near nadir": true, 
        "Near nadir definition [deg]": 0.01, 
        "Accuracy criterion": 0.001, 
        "Number of streams": 16, 
        "Number of Legendre moments": 35, 
        "Post-processing type": "Int_SF", 
        "Single scattering correction": false, 
        "Analytic for conservative scattering": [
            false, 0.0001], 
        "Integration over L-of-S in Fourier space?": "yes", 
        "The number of iterations": 1,
        "Only one solar zenith angle": false, 
        "Integration nodes": [
            false, "/home/scia/patty/SCIATRAN/data/nodes/nodes25.txt"]
    }, 

    "control_geom.inp": {
        "Position of the instrument": "toa", 
        "Number of user-defined output altitudes": 1, 
        "User-defined output altitude": 817.0, 
        "Viewing direction": "dn",
        "Do refractive geometry": true, 
        "Angle selection mode": "one", 
        "The number of solar zenith angles": 1, 
        "Solar zenith angles": [
            60.2], 
        "Type of LOS definition": "va", 
        "The number of viewing angles": 1, 
        "Viewing angles": [
            31.2], 
        "The number of azimuth angles": 1, 
        "Azimuth angles": [
            60.1], 
        "Earth radius": 6398.1, 
        "Field of view integration": false, 
        "Field of view size": 0.045, 
        "Lines of sight number for FOV integration": 5, 
        "Shape of FOV function": 1
    }, 

    "control_prof.inp": {
        "Do profiles akima interpolation": true, 
        "Do P and T from standard profile file": false, 
        "Pressure and temperature file name": [
            "../data/mls_afgl.dat2", 2, 3, 4], 
        "Trace gas replacement profiles": [
            ["../data/mls_afgl.dat2", "O3", "vmr", 2, 6],
            ["../data/mls_afgl.dat2", "NO2", "vmr", 2, 7]
        ], 
        "Pressure profile scaling": [
            false, 900.0], 
        "Ozone profile scaling": [
            false, 300.0], 
        "Water vapor profile scaling": [
            false, 2.0],
        "BrO climatology": false, 
        "BrO climatology file": "../../DATA_BASES/CLIMATOLOGY/BRO/bro_mipas_v2.dat", 
        "Ozone climatology": "NONE", 
        "Scale climatological profile": true, 
        "Ozone total column": 272.345, 
        "Path to ozone climatology": "../../DATA_BASES/CLIMATOLOGY/OZONE"
    }, 

    "control_ray.inp": {
        "Rayleigh scattering scaling": [
            false, 0.9977], 
        "Rayleigh optical thickness": [
            false, 0.5], 
        "Number of wavelength and wavelength grid": [
            [440.0]
        ], 
        "Rayleigh scattering index": 3, 
        "Percent volume concentration": [
            78.084, 20.946, 0.934, 0.036], 
        "Lorentz-Lorenz factor": "a", 
        "Refractive index": "Bates84",
        "King factor": "constant", 
        "Rayleigh depolarisation value": 0.0295, 
        "Rayleigh depolarisation filename": "../../DATA_BASES/SPECTRA/bates_depol_raman.dat"
    }, 

    "control_rrs.inp" : {
        "Numerical technique used for VRS" : "dom",
        "Integrate with FRF" : [true, 2.0, 0.2],
        "Total Raman scattering coefficients" : [false, 0.00264, 0.00143],
        "Depolarization ratio" : 0.17,
        "Add TRS to extinction" : true,
        "Basic spectroscopic parameters" : [
            ["TRS", 0.00027, 488.0, "Resonance", 130.0]],
        "Exclude solar light" : false,
        "Numerical technique used for fluorescence" : "dom",
        "Quantum efficiency function" : ["FA7", "HA6"],
        "Integration step over excitation range" : 1.0,
        "Numerical technique used for fluorescence" : "dom",
        "Integration step over Chl excitation range" : 1.0,
        "Quantum efficiency" : 0.01,
        "Gaussian emission band parameters" : [685.0, 10.6],
        "Numerical technique used for RRS" : "adj",
        "Maximum rotational number" : 25,
        "Ring spectra output mode" : "rel",
        "Approach to calculate contribution of Raman lines" : "simple binning",
        "Raman binning step" : 0.01,
        "Tradeoff speed/memory" : "memory",
        "Test with single model Fraunhofer line" : false
    },

    "control_wf.inp": {
	"Weighting functions for Stokes component": [
	    true, false, false, false],
	"Weighting functions: trace gases": [
	    "NO2"],
	"Weighting functions: aerosol parameters": [
	    "none"],
	"Weighting functions: other atmospheric parameters": [
	    "none"],
	"Ocean parameters - weighting functions\nChlorophyll  Rayleigh  Pm-Us  Pm-Ks  Pm-Kl": [
	    false, false, false, false, false],
	"Absolute or relative WF": "rel",
	"WF normalization": "standard",
	"Numerical perturbation with respect to": "scattering",
	"Numerical perturbation of water/ice": "water",
	"Lower and upper boundary for WF calculation": [
	    0.0, 50.0]
    },

    "xsections.inp": {
        "X-section path": "../data/", 
        "Do x-sections akima interpolation": false, 
        "Do O3 UV GOME FM": true, 
        "X-section: o3_uv, Bass": [
            "o3temp.dat", 245.1, 265.3], 
        "X-section: o3_uv, GOME FM": [
            "n_gometemp.vac", 235.1, 259.9], 
        "X-section: o3 UV-NIR": [
            ["QA4ECV_2014_O3vis.dat", 243]
        ], 
        "X-section: no2": [
            ["QA4ECV_2014_NO2.dat", 220]
        ]    }
}
